This is BibTeX, Version 0.99d (TeX Live 2021)
Capacity: max_strings=200000, hash_size=200000, hash_prime=170003
The top-level auxiliary file: template.aux
The style file: IEEEtran.bst
Reallocated singl_function (elt_size=4) to 100 items from 50.
Reallocated singl_function (elt_size=4) to 100 items from 50.
Reallocated singl_function (elt_size=4) to 100 items from 50.
Reallocated wiz_functions (elt_size=4) to 6000 items from 3000.
Reallocated singl_function (elt_size=4) to 100 items from 50.
Database file #1: bibliography.bib
-- IEEEtran.bst version 1.14 (2015/08/26) by Michael Shell.
-- http://www.michaelshell.org/tex/ieeetran/bibtex/
-- See the "IEEEtran_bst_HOWTO.pdf" manual for usage information.

Done.
You've used 4 entries,
            4087 wiz_defined-function locations,
            847 strings with 8415 characters,
and the built_in function-call counts, 3528 in all, are:
= -- 260
> -- 133
< -- 23
+ -- 70
- -- 28
* -- 185
:= -- 512
add.period$ -- 8
call.type$ -- 4
change.case$ -- 4
chr.to.int$ -- 51
cite$ -- 4
duplicate$ -- 249
empty$ -- 249
format.name$ -- 32
if$ -- 804
int.to.chr$ -- 0
int.to.str$ -- 4
missing$ -- 50
newline$ -- 35
num.names$ -- 4
pop$ -- 125
preamble$ -- 1
purify$ -- 0
quote$ -- 2
skip$ -- 259
stack$ -- 0
substring$ -- 131
swap$ -- 209
text.length$ -- 6
text.prefix$ -- 0
top$ -- 5
type$ -- 4
warning$ -- 0
while$ -- 12
width$ -- 5
write$ -- 60
