\relax 
\providecommand\hyper@newdestlabel[2]{}
\providecommand\HyperFirstAtBeginDocument{\AtBeginDocument}
\HyperFirstAtBeginDocument{\ifx\hyper@anchor\@undefined
\global\let\oldcontentsline\contentsline
\gdef\contentsline#1#2#3#4{\oldcontentsline{#1}{#2}{#3}}
\global\let\oldnewlabel\newlabel
\gdef\newlabel#1#2{\newlabelxx{#1}#2}
\gdef\newlabelxx#1#2#3#4#5#6{\oldnewlabel{#1}{{#2}{#3}}}
\AtEndDocument{\ifx\hyper@anchor\@undefined
\let\contentsline\oldcontentsline
\let\newlabel\oldnewlabel
\fi}
\fi}
\global\let\hyper@last\relax 
\gdef\HyperFirstAtBeginDocument#1{#1}
\providecommand\HyField@AuxAddToFields[1]{}
\providecommand\HyField@AuxAddToCoFields[2]{}
\citation{elhamifar2013sparse}
\citation{du2015group}
\citation{toghi2019quantitative}
\citation{rusu2015policy}
\@writefile{toc}{\contentsline {section}{\numberline {1}Paper Descriptions}{1}{section.1}\protected@file@percent }
\newlabel{sec:descriptions}{{1}{1}{Paper Descriptions}{section.1}{}}
\@writefile{toc}{\contentsline {subsection}{\numberline {1.1}Paper 1}{1}{subsection.1.1}\protected@file@percent }
\newlabel{sec:paper1}{{1.1}{1}{Paper 1}{subsection.1.1}{}}
\@writefile{toc}{\contentsline {subsubsection}{\numberline {1.1.1}Problem Description \& Formulation}{1}{subsubsection.1.1.1}\protected@file@percent }
\@writefile{toc}{\contentsline {subsubsection}{\numberline {1.1.2}Algorithm Description}{2}{subsubsection.1.1.2}\protected@file@percent }
\@writefile{toc}{\contentsline {subsubsection}{\numberline {1.1.3}Theoretical Results}{2}{subsubsection.1.1.3}\protected@file@percent }
\@writefile{toc}{\contentsline {subsubsection}{\numberline {1.1.4}Relation to Course Material}{2}{subsubsection.1.1.4}\protected@file@percent }
\@writefile{toc}{\contentsline {subsection}{\numberline {1.2}Paper 2}{2}{subsection.1.2}\protected@file@percent }
\newlabel{sec:paper2}{{1.2}{2}{Paper 2}{subsection.1.2}{}}
\@writefile{toc}{\contentsline {subsection}{\numberline {1.3}Paper 3}{2}{subsection.1.3}\protected@file@percent }
\newlabel{sec:paper3}{{1.3}{2}{Paper 3}{subsection.1.3}{}}
\bibstyle{IEEEtran}
\bibdata{bibliography}
\bibcite{elhamifar2013sparse}{1}
\@writefile{toc}{\contentsline {section}{\numberline {2}Comparison of Algorithms}{3}{section.2}\protected@file@percent }
\@writefile{toc}{\contentsline {section}{\numberline {3}Algorithm Implementation \& Testing}{3}{section.3}\protected@file@percent }
\@writefile{toc}{\contentsline {subsection}{\numberline {3.1}Results on Synthetic Data}{3}{subsection.3.1}\protected@file@percent }
\@writefile{toc}{\contentsline {subsection}{\numberline {3.2}Results on Benchmark Data}{3}{subsection.3.2}\protected@file@percent }
\bibcite{du2015group}{2}
\bibcite{toghi2019quantitative}{3}
\bibcite{rusu2015policy}{4}
\@writefile{toc}{\contentsline {section}{\numberline {A}Appendix}{4}{appendix.A}\protected@file@percent }
\gdef \@abspage@last{4}
